German Credit
…
german <- german %>% 
  select(Age, Sex, Job, Housing,
         `Saving_accounts` = `Saving accounts`,
         `Checking_account`= `Checking account`,
         `Credit_amount` = `Credit amount`,
          Duration, Purpose, Risk,                                   
         Result)

german %>% 
  rename_with(~gsub(" ", "_", .x))

## # A tibble: 1,000 x 11
##      Age Sex      Job Housing Saving_accounts Checking_account Credit_amount
##    <dbl> <chr>  <dbl> <chr>   <chr>           <chr>                    <dbl>
##  1    67 male       2 own     <NA>            little                    1169
##  2    22 female     2 own     little          moderate                  5951
##  3    49 male       1 own     little          <NA>                      2096
##  4    45 male       2 free    little          little                    7882
##  5    53 male       2 free    little          little                    4870
##  6    35 male       1 free    <NA>            <NA>                      9055
##  7    53 male       2 own     quite rich      <NA>                      2835
##  8    35 male       3 rent    little          moderate                  6948
##  9    61 male       1 own     rich            <NA>                      3059
## 10    28 male       3 own     little          moderate                  5234
## # ... with 990 more rows, and 4 more variables: Duration <dbl>, Purpose <chr>,
## #   Risk <dbl>, Result <chr>

Manipular Variveis

Teste booleano e gerar um valor caso o teste seja Good(0) e outro valor caso o teste seja Bad(1)

german %>% 
  mutate(
    Result_Good = if_else(Result == "bad", 1L, 0L)
  ) %>% 
  select(starts_with("Result"))

## # A tibble: 1,000 x 2
##    Result Result_Good
##    <chr>        <int>
##  1 good             0
##  2 bad              1
##  3 good             0
##  4 bad              1
##  5 good             0
##  6 bad              1
##  7 bad              1
##  8 bad              1
##  9 bad              1
## 10 bad              1
## # ... with 990 more rows
…
